{
  "type": "service_account",
  "project_id": "scrapingdata-195808",
  "private_key_id": "8413727f3e870e615ff9fa6f49ba841556bcb80d",
  "private_key": "-----BEGIN PRIVATE KEY-----\nMIIEvAIBADANBgkqhkiG9w0BAQEFAASCBKYwggSiAgEAAoIBAQCmVPES+eCCzUE4\nhvPIo/CEfFbv/Oe0HN6g6zgGj/kocnHJBCzvyfW0Q9GFoA4uLub8apRDIG9okbah\n0A8tKJTQYH5Rn/rDF1f43RZrnjSmnK+vhls815p/sxmGtsYTyDnQQrewzBmzi9AN\nfDxkYqY1n2xPfubUPImQiRV30OPvPjjRkhfxXcRd+BZFnE18cR7HWD4JHO9aFIja\nDyAR1PnyCcEAiMV9wucOe50UtrHKXFZLZteYEYOg9PvB/snu0cyY1GH29LadfZ5B\nBJHVXAH7R3IM1hUCqkpx2dzjyl2BiuXmc3N+MopBBLGKROMHQE6D0nmU7j2MG9WG\nc7XkAhJXAgMBAAECggEATzoZhFjqhFNhVBwP5cuU5n5VaMWV1jiEILE5xAJzAz2U\nDlRDVUplEyLUm6oT5xKnKqdXjKvX9T6m9+djOzbfv2ue76Fcr+2gFSW2Jre6S3xJ\nwLkmH1JxQI9eQskviz+trhIBbiChw2B+ztWU7JoConsX+7uuFnzpZ6OsSqCA2bUK\n7BwVxIXQQIOswZHGBWOnwoyJ4Dpd55SgZYMBX94X6IVYBd3EHR4vKL1MpuwVmuBA\nMsQir5zy4O/1hpux/JFgeg84azPs1CxFJ2KGO8syelpBXG75A8bX6/h5fsTg6HPK\neCTP26vl82b7LE5uHT2cC0AYPnesiem0di8Mz4rOSQKBgQDqaJtO570xDp8Qhktr\nPwlNyeDyY+0GPhllYM+RjW48mJT2mvkv3XUZPjU14i+RHXccogLTPfe0e3MqoOpL\nAxn6ZmWnbZ4R/cV1fceyqiO1ng7MW7Q9uoffuiTsIsaCfHnE2FDyGXnHCiZwuhIf\nlJF6M7ptpwF5JRNqURrtVoMzeQKBgQC1pxKYXn8fRSm301Rp17waVhf2P4x0lrru\nP9XYaEkBYujfWRfiydOA13FeMfffNGX04J2+JaSypUXMupv/JnlHAnTPSgmuttQR\nZKov9NEB0Ywuzr8h7njljPLfg48ypYnSIJJr76tzoJXLYj/bT5X3YGI3/NWnOS0Z\nDLdE1LKwTwKBgGHvRHwJ/BRj7Hcl9JqhIoz6fF4o+51xEoE1mmNQeK8efJYvl061\nMrhSMj8J+h+h9OLkmVOSf0xLi4lS47BlYlQote3msXUI1pfI7kcqKHM3zyz4X2yu\n4xfJGKYDvXZE9UcVrXQIysUq63aLdwj0tHce55Pqg4YOxHbV3e8tBvHZAoGAOZr8\n86Lr70+wliIHX/VRKozo1md6tDJkn09REmqn1C+4p7OKNppIX1BzHCr+byMfvhNJ\nEta/LwPoaa837ycVSKaHwoC5J1XFVKq2qbSaX1hDe0iHJkyIvEsBbk47KBWE6kT4\nChCcL3PabQAAPh0z8pn3K8gbPQeNvKbiq4pEDFMCgYBuWyNAddQ8FWZ7j2g9lhp8\n3TWouRGOfKNaRDtK7fSNmhCMQLJZw4EtPakfogLxdAkZRDi13EfkCN3jNtOnpmr7\naFIP2JOGrSWlqZAdQrNcWbfynQEd8s4NixBwKEvhRJes2OSf8AJZYRhx6a8OMjiA\njgTIYr8IYxx87aLSFbzx1A==\n-----END PRIVATE KEY-----\n",
  "client_email": "atul-scrapy@scrapingdata-195808.iam.gserviceaccount.com",
  "client_id": "106229319457920415076",
  "auth_uri": "https://accounts.google.com/o/oauth2/auth",
  "token_uri": "https://accounts.google.com/o/oauth2/token",
  "auth_provider_x509_cert_url": "https://www.googleapis.com/oauth2/v1/certs",
  "client_x509_cert_url": "https://www.googleapis.com/robot/v1/metadata/x509/atul-scrapy%40scrapingdata-195808.iam.gserviceaccount.com"
}
